riFr5498BR :: java.runtime.name          -> OpenJDK Runtime Environment
riFr5498BR :: java.version               -> 17
riFr5498BR :: java.specification.version -> 17
riFr5498BR :: java.specification.vendor  -> Oracle Corporation
riFr5498BR :: java.runtime.version       -> 17+35-Ubuntu-120.04
riFr5498BR :: java.vm.name               -> OpenJDK 64-Bit Server VM



UB2BI8Us0U :: Прогреваем...
Kl4u1V1BG6 :: Считаем...

              N          time, s            time, s            deltaTime, s       totalTime, s
                         fibLong(N)         fibDouble(N)

B3526xD1XE :: 30         0.01211688         0.01186507         0.12102549         0.12102549
B3526xD1XE :: 31         0.01650224         0.01843408         0.19298784         0.31401333
B3526xD1XE :: 32         0.04601253         0.06177807         0.54067001         0.85468334
B3526xD1XE :: 33         0.04192577         0.04179839         0.42047185         1.27515519
B3526xD1XE :: 34         0.04070818         0.04984214         0.45414440         1.72929959
B3526xD1XE :: 35         0.06158820         0.05808670         0.59931872         2.32861831
B3526xD1XE :: 36         0.09413702         0.09363842         0.93986272         3.26848102
B3526xD1XE :: 37         0.15637996         0.15556983         1.56065995         4.82914097
B3526xD1XE :: 38         0.24982695         0.24864008         2.49361180         7.32275277
B3526xD1XE :: 39         0.40089932         0.39618113         3.98670708        11.30945985
B3526xD1XE :: 40         0.64860929         0.64665325         6.47762506        17.78708491
B3526xD1XE :: 41         1.04556289         1.04068023         2.08762976        19.87471467
B3526xD1XE :: 42         1.69628190         1.67990252         3.37757326        23.25228793
B3526xD1XE :: 43         2.74991933         2.72197500         5.47310177        28.72538969
B3526xD1XE :: 44         4.45114981         4.49040893         8.94293812        37.66832782
B3526xD1XE :: 45         7.16021189         7.25082121        14.41226553        52.08059335
B3526xD1XE :: 46        11.77802924        11.65652468        23.43515473        75.51574808
B3526xD1XE :: 47        19.10362831        19.11058916        38.21545776       113.73120583
B3526xD1XE :: 48        31.76997705        31.78441881        63.55549333       177.28669916
